Caret vs. tidymodels - comparing the old and new
…
## Random Forest Model Specification (classification)
## 
## Computational engine: ranger

# Specifying the grid of hyperparameters that should be tested
(gridy_tidym <- grid_random(
  mtry %>% range_set(c( 1,  20)),
  trees %>% range_set(c( 500, 1000)), 
  min_n %>% range_set(c(2,  10)),
  size = 30
  ))

## # A tibble: 30 x 3
##     mtry trees min_n
##    <int> <int> <int>
##  1     1   806     4
##  2     6   681     6
##  3     7   589     2
##  4     3   923     6
##  5     4   822     5
##  6    19   681    10
##  7     5   572     3
##  8     2   744     2
##  9    12   903     5
## 10    16   616     3
## # … with 20 more rows
…
Subsequently, I’m putting it into a tidy data frame structure where each model-parameters combination is bound together and assigned a model id that will be used later to make a distinction between consequtive fits.

# Merging all possibilities with our cross-validated data frame
(spec_tidym <- tibble(spec = merge(engine_tidym, gridy_tidym)) %>% 
  mutate(model_id = row_number()))

## # A tibble: 30 x 2
##    spec      model_id
##    <list>       <int>
##  1 <spec[+]>        1
##  2 <spec[+]>        2
##  3 <spec[+]>        3
##  4 <spec[+]>        4
##  5 <spec[+]>        5
##  6 <spec[+]>        6
##  7 <spec[+]>        7
##  8 <spec[+]>        8
##  9 <spec[+]>        9
## 10 <spec[+]>       10
## # … with 20 more rows

Lastly, I’m adding the last component into this tidy structure: all cross-validation splits that were specified before with the use of the crossing function. This part is very likely to evolve and be simplified in the upcoming months. Now we’re all set to start the actual tidy-modelling!

(spec_tidym <- crossing(train_cv, spec_tidym))

## # A tibble: 150 x 4
##    splits             id    spec      model_id
##    <named list>       <chr> <list>       <int>
##  1 <split [2.9K/714]> Fold1 <spec[+]>        1
##  2 <split [2.9K/714]> Fold1 <spec[+]>        2
##  3 <split [2.9K/714]> Fold1 <spec[+]>        3
##  4 <split [2.9K/714]> Fold1 <spec[+]>        4
##  5 <split [2.9K/714]> Fold1 <spec[+]>        5
##  6 <split [2.9K/714]> Fold1 <spec[+]>        6
##  7 <split [2.9K/714]> Fold1 <spec[+]>        7
##  8 <split [2.9K/714]> Fold1 <spec[+]>        8
##  9 <split [2.9K/714]> Fold1 <spec[+]>        9
## 10 <split [2.9K/714]> Fold1 <spec[+]>       10
## # … with 140 more rows
…
After training is done I would like to assess which model performs the best based on cross-validated hold-out performance. In order to do that, let’s calculate the AUC of all test sets across all model-parameter combinations. By averaging the results up, I can see the entire performance profile of all possibilities.

Tidymodels includes also two very handy packages: probably and tidyposterior, which are very usefull for analysing model estimated probabilities and it’s resampled performance profile. I will make an introduction to those packages in one of my next posts.

# Assessing individual model-fold performance and averaging performance across all folds for each model
(perf_summary_tidym <- fits_pred_tidym %>% 
  unnest(preds) %>% 
  group_by(id, model_id) %>% 
  roc_auc(truth = status, .pred_bad) %>% 
  group_by(model_id, .metric, .estimator) %>% 
  summarize(mean = mean(.estimate, na.rm = TRUE))) %>% 
  arrange(-mean)

## # A tibble: 30 x 4
## # Groups:   model_id, .metric [30]
##    model_id .metric .estimator  mean
##       <int> <chr>   <chr>      <dbl>
##  1        5 roc_auc binary     0.831
##  2       21 roc_auc binary     0.831
##  3        4 roc_auc binary     0.831
##  4        2 roc_auc binary     0.830
##  5       14 roc_auc binary     0.830
##  6       29 roc_auc binary     0.830
##  7        7 roc_auc binary     0.830
##  8       27 roc_auc binary     0.830
##  9       28 roc_auc binary     0.829
## 10        8 roc_auc binary     0.829
## # … with 20 more rows
…
