Testing the new tidymodels' tune package - empirical analysis between the oversampling ratio value and model performance
…
It can be further easily summarized with the estimate function, which will extract and flatten the .metrics column. It makes it very convenient to visualize the performance profile of the model.

estimate(fits) %>% 
  arrange(desc(over_ratio))
## # A tibble: 44 x 6
##    over_ratio .metric .estimator  mean     n std_err
##         <dbl> <chr>   <chr>      <dbl> <int>   <dbl>
##  1        1.5 j_index binary     0.509    15 0.0104 
##  2        1.5 roc_auc binary     0.837    15 0.00434
##  3        1.5 sens    binary     0.696    15 0.00913
##  4        1.5 spec    binary     0.813    15 0.00464
##  5        1.4 j_index binary     0.512    15 0.0104 
##  6        1.4 roc_auc binary     0.837    15 0.00432
##  7        1.4 sens    binary     0.704    15 0.00908
##  8        1.4 spec    binary     0.809    15 0.00421
##  9        1.3 j_index binary     0.518    15 0.00933
## 10        1.3 roc_auc binary     0.837    15 0.00413
## # … with 34 more rows
…
