…
At the end let’s join back the target variable and the dataset with our artificially generated missing values:

df_churn <- bind_cols(
  df_churn[, 1],
  df_churn_na
  )

df_churn
## # A tibble: 7,043 x 14
##    churn female senior_citizen partner dependents tenure phone_service
##    <fct>  <dbl>          <int>   <dbl>      <dbl>  <int>         <dbl>
##  1 No         1              0       1          0      1             0
##  2 No        NA              0       0          0     34             1
##  3 Yes       NA             NA       0          0      2             1
##  4 No         0              0       0          0     45             0
##  5 Yes        1              0       0          0      2             1
##  6 Yes        1              0       0          0      8             1
##  7 No         0              0       0          1     22             1
##  8 No         1              0       0          0     10             0
##  9 Yes       NA              0       1          0     28             1
## 10 No        NA              0       0          1     62             1
## # … with 7,033 more rows, and 7 more variables: contract <fct>,
## #   multiple_lines <fct>, internet_service <fct>, streaming_tv <fct>,
## #   streaming_movies <fct>, monthly_charges <dbl>, total_charges <dbl>
…
