…
## Random Forest Model Specification (classification)
## 
## Computational engine: ranger

# Specifying the grid of hyperparameters that should be tested
(gridy_tidym <- grid_random(
  mtry %>% range_set(c( 1,  20)),
  trees %>% range_set(c( 500, 1000)), 
  min_n %>% range_set(c(2,  10)),
  size = 30
  ))

## # A tibble: 30 x 3
##     mtry trees min_n
##    <int> <int> <int>
##  1    15   869     5
##  2    17   774     3
##  3    18   785     3
##  4    20   789    10
##  5     6   970     9
##  6     2   854     8
##  7    11   571     4
##  8    19   564     3
##  9     9   779     3
## 10     9   735     5
## # … with 20 more rows
…
Subsequently, I’m putting it into a tidy, data frame structure where each model-parameters combination is bound together and assigned a model id that will be used later to make a distinction between consequtive fits.

# Merging all possibilities with our cross-validated data frame
(spec_tidym <- tibble(spec = merge(engine_tidym, gridy_tidym)) %>% 
  mutate(model_id = row_number()))

## # A tibble: 30 x 2
##    spec      model_id
##    <list>       <int>
##  1 <spec[+]>        1
##  2 <spec[+]>        2
##  3 <spec[+]>        3
##  4 <spec[+]>        4
##  5 <spec[+]>        5
##  6 <spec[+]>        6
##  7 <spec[+]>        7
##  8 <spec[+]>        8
##  9 <spec[+]>        9
## 10 <spec[+]>       10
## # … with 20 more rows

Lastly, I’m adding the last component into this tidy structure: all cross-validation splits that were specified before with the use of the crossing function. This part is very likely to evolve and be simplified in the upcoming months. Now we’re all set to start the actual modelling!

(spec_tidym <- crossing(train_cv, spec_tidym))

## # A tibble: 150 x 4
##    splits             id    spec      model_id
##    <named list>       <chr> <list>       <int>
##  1 <split [2.9K/714]> Fold1 <spec[+]>        1
##  2 <split [2.9K/714]> Fold1 <spec[+]>        2
##  3 <split [2.9K/714]> Fold1 <spec[+]>        3
##  4 <split [2.9K/714]> Fold1 <spec[+]>        4
##  5 <split [2.9K/714]> Fold1 <spec[+]>        5
##  6 <split [2.9K/714]> Fold1 <spec[+]>        6
##  7 <split [2.9K/714]> Fold1 <spec[+]>        7
##  8 <split [2.9K/714]> Fold1 <spec[+]>        8
##  9 <split [2.9K/714]> Fold1 <spec[+]>        9
## 10 <split [2.9K/714]> Fold1 <spec[+]>       10
## # … with 140 more rows
…
After training is done I would like to assess which model performs the best based on cross-validated hold-out sets performance. In order to do that let’s calculate the AUC of all test sets across all model-parameters combinations. By averaging the results up, I can see the entire performance profile of all possibilities.

# Assessing individual model-fold performance and averaging performance across all folds for each model
(perf_summary_tidym <- fits_pred_tidym %>% 
  unnest(preds) %>% 
  group_by(id, model_id) %>% 
  roc_auc(truth = status, .pred_bad) %>% 
  group_by(model_id, .metric, .estimator) %>% 
  summarize(mean = mean(.estimate, na.rm = TRUE))) %>% 
  arrange(-mean)

## # A tibble: 30 x 4
## # Groups:   model_id, .metric [30]
##    model_id .metric .estimator  mean
##       <int> <chr>   <chr>      <dbl>
##  1        6 roc_auc binary     0.831
##  2       19 roc_auc binary     0.831
##  3       25 roc_auc binary     0.831
##  4       22 roc_auc binary     0.830
##  5       28 roc_auc binary     0.830
##  6        5 roc_auc binary     0.829
##  7       21 roc_auc binary     0.829
##  8       23 roc_auc binary     0.828
##  9       13 roc_auc binary     0.827
## 10       15 roc_auc binary     0.827
## # … with 20 more rows
…
