…
The outcome can be further easily summarized with the estimate function, which will extract and flatten the .metrics column. That makes it very convenient to visualize the performance profile of the model.

estimate(fits) %>% 
  arrange(desc(over_ratio))
## # A tibble: 44 x 6
##    over_ratio .metric .estimator  mean     n std_err
##         <dbl> <chr>   <chr>      <dbl> <int>   <dbl>
##  1        1.5 j_index binary     0.510    15 0.0103 
##  2        1.5 roc_auc binary     0.837    15 0.00421
##  3        1.5 sens    binary     0.699    15 0.00919
##  4        1.5 spec    binary     0.812    15 0.00471
##  5        1.4 j_index binary     0.512    15 0.0104 
##  6        1.4 roc_auc binary     0.837    15 0.00437
##  7        1.4 sens    binary     0.701    15 0.00881
##  8        1.4 spec    binary     0.811    15 0.00479
##  9        1.3 j_index binary     0.514    15 0.0107 
## 10        1.3 roc_auc binary     0.838    15 0.00410
## # … with 34 more rows
…
