My contribution to the tidymodels ecosystem - implementing supervised discretization step with XgBoost backend
…
### XgBoost tune
(grid_xgboost_tune <- grid_max_entropy(
  penalty(), 
  mixture(),
  num_breaks(),
  tree_depth(),
  min_n(),
  size = 25
  ))
## # A tibble: 25 x 5
##     penalty mixture num_breaks tree_depth min_n
##       <dbl>   <dbl>      <int>      <int> <int>
##  1 5.91e-10   0.206          7          1    26
##  2 5.57e- 5   0.135          4         12    21
##  3 3.93e- 2   0.206          2         12    37
##  4 1.14e- 2   0.804          3         14    28
##  5 4.81e-10   0.160          9          3     6
##  6 1.97e- 3   0.417          5          1    40
##  7 1.86e- 5   0.353          7          5     4
##  8 1.14e- 6   0.463          3          1    17
##  9 1.16e- 3   0.705          3         10    12
## 10 1.51e- 1   0.877          9          6    31
## # … with 15 more rows
…
